<svg xmlns="http://www.w3.org/2000/svg" width="14.82" height="11.78" viewBox="0 0 14.82 11.78">
  <metadata><?xpacket begin="﻿" id="W5M0MpCehiHzreSzNTczkc9d"?>
<x:xmpmeta xmlns:x="adobe:ns:meta/" x:xmptk="Adobe XMP Core 5.6-c140 79.160451, 2017/05/06-01:08:21        ">
   <rdf:RDF xmlns:rdf="http://www.w3.org/1999/02/22-rdf-syntax-ns#">
      <rdf:Description rdf:about=""/>
   </rdf:RDF>
</x:xmpmeta>         
<?xpacket end="w"?></metadata>
<defs>
  </defs>
  <path id="Фигура_28_копия_2" data-name="Фигура 28 копия 2" class="cls-1" d="M1275.5,2936.98l3,2.99,7-6.97" transform="translate(-1273.09 -2932)"/>
</svg>
