<?xml version="1.0" encoding="iso-8859-1"?>
<!-- Generator: Adobe Illustrator 18.0.0, SVG Export Plug-In . SVG Version: 6.00 Build 0)  -->
<!DOCTYPE svg PUBLIC "-//W3C//DTD SVG 1.1//EN" "http://www.w3.org/Graphics/SVG/1.1/DTD/svg11.dtd">
<svg version="1.1" id="Capa_1" xmlns="http://www.w3.org/2000/svg" xmlns:xlink="http://www.w3.org/1999/xlink" x="0px" y="0px"
	 viewBox="22.333 576.499 22.667 23" style="enable-background:new 22.333 576.499 22.667 23;" xml:space="preserve">
<g>
	<path d="M44.083,581.454c-0.431-0.651-1.132-1.109-1.922-1.257c-0.347-0.065-0.7-0.067-1.041-0.012
		c0.067-0.745,0.109-1.523,0.125-2.334h0.711c0.381,0,0.69-0.303,0.69-0.677c0-0.373-0.309-0.676-0.69-0.676H25.4
		c-0.381,0-0.69,0.303-0.69,0.676c0,0.374,0.309,0.677,0.69,0.677h0.71c0.016,0.813,0.059,1.592,0.125,2.338
		c-0.348-0.059-0.709-0.059-1.064,0.008c-0.791,0.147-1.491,0.605-1.922,1.256c-0.905,1.365-0.651,3.471,0.047,4.758
		c1.205,2.223,3.515,3.959,6.109,4.622c0.174,0.277,0.34,0.511,0.37,0.499c0.795,1.242,1.489,2.013,1.832,2.358v1.873
		c-0.802,0.28-1.38,1.024-1.38,1.905v0.677H26.78c-0.381,0-0.69,0.303-0.69,0.677c0,0.373,0.309,0.676,0.69,0.676h0.69h12.417h0.69
		c0.381,0,0.69-0.303,0.69-0.676c0-0.374-0.309-0.677-0.69-0.677h-3.449v-0.677c0-0.881-0.578-1.625-1.38-1.905v-1.873
		c0.343-0.345,1.039-1.116,1.832-2.358c0.031,0.011,0.207-0.228,0.389-0.51c2.577-0.671,4.869-2.4,6.068-4.612
		C44.734,584.925,44.988,582.819,44.083,581.454z M24.439,585.616c-0.521-0.959-0.708-2.56-0.105-3.471
		c0.24-0.362,0.634-0.618,1.08-0.701c0.34-0.063,0.678-0.025,0.979,0.107l0.045,0.361c0.45,3.053,1.285,5.482,2.173,7.327
		C26.829,588.513,25.302,587.209,24.439,585.616z M42.894,585.616c-0.859,1.584-2.374,2.882-4.144,3.61
		c0.886-1.845,1.718-4.269,2.168-7.315l0.046-0.371c0.294-0.124,0.624-0.158,0.955-0.096c0.446,0.084,0.84,0.339,1.08,0.701
		C43.602,583.057,43.415,584.657,42.894,585.616z"/>
</g>
</svg>
