<svg xmlns="http://www.w3.org/2000/svg" width="21.969" height="13" viewBox="0 0 21.969 13">
  <metadata><?xpacket begin="﻿" id="W5M0MpCehiHzreSzNTczkc9d"?>
<x:xmpmeta xmlns:x="adobe:ns:meta/" x:xmptk="Adobe XMP Core 5.6-c140 79.160451, 2017/05/06-01:08:21        ">
   <rdf:RDF xmlns:rdf="http://www.w3.org/1999/02/22-rdf-syntax-ns#">
      <rdf:Description rdf:about=""/>
   </rdf:RDF>
</x:xmpmeta>
<?xpacket end="w"?></metadata>
<defs>
  </defs>
  <path class="cls-1" d="M890.043,4274.14a18.772,18.772,0,0,0-1.55-1.63c-0.187-.18-0.38-0.36-0.567-0.55a0.809,0.809,0,0,1-.131-1.34c0.293-.42.605-0.84,0.905-1.25,0.273-.37.555-0.75,0.826-1.13l0.055-.08a8.692,8.692,0,0,0,1.336-2.4,1.1,1.1,0,0,0-.026-0.89,1.068,1.068,0,0,0-.764-0.43,2.126,2.126,0,0,0-.351-0.02h-3.413a1.046,1.046,0,0,0-1.054.75c-0.188.48-.4,1-0.632,1.49a12.277,12.277,0,0,1-1.934,3.04l-0.036.04a0.6,0.6,0,0,1-.3.24,0.073,0.073,0,0,1-.043-0.01,0.942,0.942,0,0,1-.294-0.72h0l0-4a0.419,0.419,0,0,0,0-.05,1.156,1.156,0,0,0-1-1.2h-3.578a1.419,1.419,0,0,0-1.186.59,0.571,0.571,0,0,0-.164.54,0.534,0.534,0,0,0,.444.31,0.9,0.9,0,0,1,.759.84,12.122,12.122,0,0,1,.048,2.81,2.418,2.418,0,0,1-.157.73,0.319,0.319,0,0,1-.156.2,0.4,0.4,0,0,1-.2-0.09,3.087,3.087,0,0,1-.705-0.8,19.168,19.168,0,0,1-2.033-3.86,1.214,1.214,0,0,0-1.124-.84c-0.562-.01-1.071-0.01-1.557-0.01-0.53,0-1.022,0-1.5.01a0.93,0.93,0,0,0-.846.38,0.984,0.984,0,0,0,.029.94,38.639,38.639,0,0,0,3.982,7.26,10.176,10.176,0,0,0,3.094,2.95,7.835,7.835,0,0,0,4.081,1.04c0.177,0,.359,0,0.543-0.01a1.131,1.131,0,0,0,1.281-1.28,3.184,3.184,0,0,1,.29-1.36,0.358,0.358,0,0,1,.313-0.25,0.5,0.5,0,0,1,.293.11,2.516,2.516,0,0,1,.5.46c0.13,0.14.259,0.29,0.387,0.44,0.278,0.32.566,0.65,0.866,0.96a2.689,2.689,0,0,0,2.213.92h3.123a0.9,0.9,0,0,0,.734-0.49,1.281,1.281,0,0,0-.01-1.2,6.643,6.643,0,0,0-.787-1.16h0Zm0,0" transform="translate(-869.031 -4264)"/>
</svg>
